<?xml version="1.0" encoding="UTF-8"?>
<svg width="21px" height="24px" viewBox="0 0 21 24" version="1.1" xmlns="http://www.w3.org/2000/svg" xmlns:xlink="http://www.w3.org/1999/xlink">
    <!-- Generator: Sketch 52.6 (67491) - http://www.bohemiancoding.com/sketch -->
    <title>Unicorn</title>
    <desc>Created with Sketch.</desc>
    <g id="Page-1" stroke="none" stroke-width="1" fill="none" fill-rule="evenodd">
        <g id="LogoGrey-Copy" transform="translate(0.000000, -1.000000)" fill="#C8B5C9">
            <g id="Unicorn" transform="translate(0.000000, 1.000000)">
                <path d="M8.72033898,22 C11.2763292,22 11.8195354,23.6992016 13.7486468,23.8828125 C15.4544528,24.0451694 18.7045154,22.8653961 18.7045154,20.5574777 C18.7045154,18.5224819 16.683756,13.3196794 15.3050847,10.3220486 C13.351928,6.07531993 11.5435994,4.19047619 8.72033898,4.19047619 C6.60255338,4.19047619 5.07003094,8.17370332 3.55932203,9.45568266 C1.63448931,11.0890852 0.887397378,11.5238095 0.133648371,13.0952381 C-0.0361394537,13.4492146 0.517458281,14.530558 0.656771385,14.8392104 C1.04374211,15.6965558 1.76685232,15.5469193 3.20338983,15.3418899 C3.86843905,15.2469709 4.59974648,15.0856287 5.33898305,14.8392104 C6.93783412,14.3062469 8.54012415,13.6346475 9.35225768,14.203559 C10.7540444,15.1855312 6.89199355,22 8.72033898,22 Z" id="Oval"></path>
                <path d="M7.48845954,1.3968254 C8.07243112,1.45168069 8.54700739,1.7179619 8.91218836,2.19566902 C9.27736932,2.67337614 9.51465746,3.33831187 9.62405276,4.19047619 C8.90022568,4.47136478 8.34726786,4.36189678 7.96517929,3.86207217 C7.58309071,3.36224757 7.42418413,2.54049864 7.48845954,1.3968254 Z" id="Rectangle"></path>
                <polygon id="Rectangle" transform="translate(6.173361, 2.803180) rotate(-27.000000) translate(-6.173361, -2.803180) " points="5.44550973 0.1210094 6.31872239 3.00148562 6.61149554 3.98917154 6.90121136 4.96654341 5.48713803 5.48535004"></polygon>
                <path d="M8.72587085,5.81605183 C8.4150645,4.90249406 8.53370769,4.16339297 9.0818004,3.59874856 C9.40497957,3.26580979 10.6876509,3.18134038 11.5337761,2.50317361 C11.7303507,2.34561964 11.91891,2.15706776 12.0994541,1.93751795 C12.3244799,1.66387634 12.634003,1.14506784 13.0280234,0.381092454 C12.845182,2.57711368 12.5678135,3.9764962 12.1959178,4.57924001 C11.8240222,5.18198383 10.9938521,6.04964889 9.70540774,7.1822352 C10.1143438,7.55487058 10.1949999,8.2087634 9.94737593,9.14391366 C9.79197157,9.73079725 9.52647027,10.3921466 9.15087205,11.1279617 C9.00228114,11.4190584 8.98510354,11.5412834 9.09933925,11.4946366 C8.98224967,11.4270484 8.90487555,11.2434793 8.86721687,10.9439291 C8.74710494,9.98851714 7.98222972,9.31039561 8.01675027,8.66782286 C8.06303789,7.80621548 7.899156,7.84956782 8.25419986,6.97828123 C8.27704621,6.92221572 8.43426987,6.53480591 8.72587085,5.81605183 Z" id="Rectangle" transform="translate(10.521820, 5.942696) rotate(82.000000) translate(-10.521820, -5.942696) "></path>
                <path d="M10.1149496,8.34399454 C9.80414329,7.43043677 9.92278647,6.69133568 10.4708792,6.12669127 C10.7940584,5.79375251 12.0767296,5.7092831 12.9228549,5.03111632 C13.1194295,4.87356236 13.3079888,4.68501047 13.4885329,4.46546066 C13.7135587,4.19181906 14.0230818,3.67301056 14.4171022,2.90903517 C14.2342608,5.10505639 13.9568923,6.50443891 13.5849966,7.10718273 C13.213101,7.70992654 12.3829309,8.5775916 11.0944865,9.71017791 C11.5034226,10.0828133 11.5840787,10.7367061 11.3364547,11.6718564 C11.1810504,12.25874 10.9155491,12.9200893 10.5399508,13.6559044 C10.3913599,13.9470011 10.3741823,14.0692261 10.488418,14.0225793 C10.3713285,13.9549911 10.2939543,13.771422 10.2562957,13.4718718 C10.1361837,12.5164599 9.3713085,11.8383383 9.40582906,11.1957656 C9.45211668,10.3341582 9.28823479,10.3775105 9.64327865,9.50622394 C9.666125,9.45015843 9.82334866,9.06274863 10.1149496,8.34399454 Z" id="Rectangle" transform="translate(11.910899, 8.470639) rotate(82.000000) translate(-11.910899, -8.470639) "></path>
                <path d="M11.5386784,11.4868517 C11.2278721,10.5732939 11.3465153,9.83419282 11.894608,9.26954841 C12.2177872,8.93660965 13.5004585,8.85214024 14.3465837,8.17397347 C14.5431583,8.0164195 14.7317176,7.82786761 14.9122617,7.60831781 C15.1372875,7.3346762 15.4468106,6.8158677 15.840831,6.05189231 C15.6579896,8.24791354 15.3806211,9.64729606 15.0087254,10.2500399 C14.6368298,10.8527837 13.8066597,11.7204487 12.5182153,12.8530351 C12.9271514,13.2256704 13.0078075,13.8795633 12.7601835,14.8147135 C12.6047792,15.4015971 12.3392779,16.0629464 11.9636797,16.7987615 C11.8150887,17.0898583 11.7979111,17.2120833 11.9121468,17.1654365 C11.7950573,17.0978483 11.7176831,16.9142791 11.6800245,16.6147289 C11.5599125,15.659317 10.7950373,14.9811955 10.8295579,14.3386227 C10.8758455,13.4770153 10.7119636,13.5203677 11.0670075,12.6490811 C11.0898538,12.5930156 11.2470775,12.2056058 11.5386784,11.4868517 Z" id="Rectangle" transform="translate(13.334628, 11.613496) rotate(82.000000) translate(-13.334628, -11.613496) "></path>
                <path d="M13.3183395,14.6297088 C13.0075331,13.7161511 13.1261763,12.97705 13.674269,12.4124056 C13.9974482,12.0794668 15.2801195,11.9949974 16.1262447,11.3168306 C16.3228193,11.1592766 16.5113787,10.9707248 16.6919227,10.7511749 C16.9169485,10.4775333 17.2264716,9.95872484 17.620492,9.19474945 C17.4376506,11.3907707 17.1602821,12.7901532 16.7883865,13.392897 C16.4164908,13.9956408 15.5863208,14.8633059 14.2978764,15.9958922 C14.7068124,16.3685276 14.7874685,17.0224204 14.5398446,17.9575707 C14.3844402,18.5444542 14.1189389,19.2058036 13.7433407,19.9416187 C13.5947498,20.2327154 13.5775722,20.3549404 13.6918079,20.3082936 C13.5747183,20.2407054 13.4973442,20.0571363 13.4596855,19.7575861 C13.3395736,18.8021741 12.5746983,18.1240526 12.6092189,17.4814799 C12.6555065,16.6198725 12.4916246,16.6632248 12.8466685,15.7919382 C12.8695148,15.7358727 13.0267385,15.3484629 13.3183395,14.6297088 Z" id="Rectangle" transform="translate(15.114289, 14.756353) rotate(82.000000) translate(-15.114289, -14.756353) "></path>
            </g>
        </g>
    </g>
</svg>